<?xml version="1.0" encoding="utf-16"?>
<!-- Generator: Adobe Illustrator 17.0.0, SVG Export Plug-In . SVG Version: 6.00 Build 0)  -->
<!DOCTYPE svg PUBLIC "-//W3C//DTD SVG 1.1//EN" "http://www.w3.org/Graphics/SVG/1.1/DTD/svg11.dtd">
<svg version="1.1" id="Layer_1" xmlns="http://www.w3.org/2000/svg" xmlns:xlink="http://www.w3.org/1999/xlink" x="0px" y="0px"
	 width="189.5px" height="35.5px" viewBox="0 0 189.5 35.5" style="enable-background:new 0 0 189.5 35.5;" xml:space="preserve">
<style type="text/css">
	.st0{fill-rule:evenodd;clip-rule:evenodd;fill:#EC2024;}
	.st1{fill-rule:evenodd;clip-rule:evenodd;fill:#FFFFFF;}
</style>
<polygon class="st0" points="155.3,17 171.3,1 139.3,1 155.3,17 "/>
<polygon class="st0" points="155.3,17 171.3,33 139.3,33 155.3,17 "/>
<polygon class="st1" points="155.3,17 139.3,1 139.3,33 155.3,17 "/>
<polygon class="st1" points="155.3,17 171.3,1 171.3,33 155.3,17 "/>
<polygon class="st0" points="187.3,17 171.3,1 171.3,33 187.3,17 "/>
<polygon class="st0" points="123.3,17 139.3,1 139.3,33 123.3,17 "/>
<path class="st1" d="M9.8,16h14.4V7.2c0-1.6-0.1-2.6-0.3-3.1c-0.2-0.4-0.5-0.7-1-1c-0.7-0.4-1.3-0.5-2.1-0.5h-1.1V1.7H33v0.8h-1.1
	c-0.7,0-1.4,0.2-2.1,0.5c-0.5,0.2-0.8,0.6-1,1.1c-0.2,0.5-0.3,1.5-0.3,3v19.9c0,1.6,0.1,2.6,0.3,3.1c0.1,0.4,0.5,0.7,0.9,1
	c0.7,0.4,1.4,0.6,2.1,0.6H33v0.8H19.7v-0.8h1.1c1.3,0,2.2-0.4,2.8-1.1c0.4-0.5,0.6-1.7,0.6-3.5v-9.4H9.8v9.4c0,1.6,0.1,2.6,0.3,3.1
	c0.2,0.4,0.5,0.7,1,1c0.7,0.4,1.3,0.6,2.1,0.6h1.1v0.8H1v-0.8h1.1c1.3,0,2.2-0.4,2.8-1.1c0.4-0.5,0.5-1.7,0.5-3.5V7.2
	c0-1.6-0.1-2.6-0.3-3.1C5,3.7,4.7,3.4,4.2,3.1C3.5,2.7,2.8,2.5,2.1,2.5H1V1.7h13.2v0.8h-1.1c-0.7,0-1.4,0.2-2.1,0.5
	c-0.5,0.2-0.8,0.6-1,1.1c-0.2,0.5-0.3,1.5-0.3,3V16L9.8,16z"/>
<path class="st1" d="M53.2,1v10.7h-0.8c-0.3-2.1-0.8-3.7-1.5-4.9c-0.7-1.2-1.7-2.2-3-2.9c-1.3-0.7-2.7-1.1-4.1-1.1
	c-1.6,0-2.9,0.5-3.9,1.4c-1,1-1.5,2.1-1.5,3.3c0,0.9,0.3,1.8,1,2.6c0.9,1.1,3.2,2.7,6.7,4.6c2.9,1.5,4.9,2.7,5.9,3.6
	c1.1,0.8,1.9,1.8,2.4,2.9c0.6,1.1,0.9,2.3,0.9,3.5c0,2.3-0.9,4.4-2.7,6.1c-1.8,1.7-4.2,2.5-7,2.5c-0.9,0-1.7-0.1-2.5-0.2
	c-0.5-0.1-1.4-0.3-2.9-0.8c-1.5-0.5-2.4-0.7-2.8-0.7c-0.4,0-0.7,0.1-0.9,0.3c-0.2,0.2-0.4,0.7-0.5,1.4h-0.8V22.7h0.8
	c0.4,2.2,0.9,3.9,1.6,5c0.7,1.1,1.7,2,3.1,2.7c1.4,0.7,2.9,1.1,4.5,1.1c1.9,0,3.4-0.5,4.5-1.5c1.1-1,1.6-2.2,1.6-3.6
	c0-0.8-0.2-1.5-0.6-2.3c-0.4-0.8-1.1-1.5-2-2.2c-0.6-0.5-2.2-1.4-4.9-2.9c-2.6-1.5-4.5-2.7-5.6-3.5c-1.1-0.9-2-1.9-2.5-2.9
	c-0.6-1.1-0.9-2.2-0.9-3.5c0-2.2,0.8-4.1,2.6-5.7C39,1.8,41.2,1,43.8,1c1.6,0,3.4,0.4,5.2,1.2c0.8,0.4,1.5,0.6,1.8,0.6
	c0.4,0,0.7-0.1,1-0.4c0.2-0.2,0.5-0.7,0.6-1.4H53.2L53.2,1z"/>
<path class="st1" d="M77.3,16.8c2.1,0.5,3.8,1.2,4.8,2.2c1.5,1.4,2.2,3.1,2.2,5.1c0,1.5-0.5,3-1.5,4.4c-1,1.4-2.3,2.4-4,3.1
	c-1.7,0.6-4.3,1-7.8,1H56.5v-0.8h1.2c1.3,0,2.2-0.4,2.8-1.2c0.3-0.5,0.5-1.7,0.5-3.4v-20c0-1.9-0.2-3.1-0.7-3.6
	c-0.6-0.7-1.5-1-2.6-1h-1.2V1.7h13.4c2.5,0,4.5,0.2,6,0.6c2.3,0.5,4,1.5,5.2,2.9c1.2,1.4,1.8,3,1.8,4.8c0,1.5-0.5,2.9-1.4,4.2
	C80.5,15.3,79.1,16.2,77.3,16.8L77.3,16.8z M65.4,15.6c0.6,0.1,1.2,0.2,1.9,0.2c0.7,0.1,1.5,0.1,2.4,0.1c2.2,0,3.9-0.2,5-0.7
	c1.1-0.5,2-1.2,2.6-2.2c0.6-1,0.9-2.1,0.9-3.2c0-1.8-0.7-3.3-2.2-4.6c-1.5-1.3-3.6-1.9-6.4-1.9c-1.5,0-2.9,0.2-4.1,0.5V15.6
	L65.4,15.6z M65.4,30.4c1.8,0.4,3.5,0.6,5.2,0.6c2.8,0,4.8-0.6,6.3-1.9c1.4-1.2,2.2-2.8,2.2-4.6c0-1.2-0.3-2.4-1-3.5
	c-0.7-1.1-1.7-2-3.2-2.6c-1.5-0.6-3.3-1-5.5-1c-0.9,0-1.8,0-2.4,0c-0.7,0-1.2,0.1-1.6,0.2V30.4L65.4,30.4z"/>
<path class="st1" d="M112.9,1l0.7,10.5h-0.7c-0.9-3.1-2.3-5.4-4-6.8c-1.8-1.4-3.8-2.1-6.3-2.1c-2.1,0-3.9,0.5-5.6,1.6
	c-1.7,1-3,2.7-3.9,5c-0.9,2.3-1.4,5.1-1.4,8.5c0,2.8,0.4,5.2,1.3,7.3c0.9,2,2.2,3.6,4,4.7c1.8,1.1,3.9,1.6,6.2,1.6
	c2,0,3.8-0.4,5.3-1.3c1.5-0.9,3.2-2.6,5.1-5.1l0.7,0.5c-1.5,2.8-3.4,4.8-5.4,6c-2.1,1.3-4.5,1.9-7.4,1.9c-5.1,0-9.1-1.9-11.9-5.7
	c-2.1-2.8-3.1-6.2-3.1-10c0-3.1,0.7-5.9,2.1-8.5c1.4-2.6,3.3-4.6,5.7-6c2.4-1.4,5.1-2.1,7.9-2.1c2.2,0,4.4,0.5,6.6,1.6
	c0.6,0.3,1.1,0.5,1.4,0.5c0.4,0,0.8-0.1,1.1-0.4c0.4-0.4,0.7-1,0.8-1.7H112.9L112.9,1z"/>
</svg>
