<?xml version="1.0" encoding="utf-8"?>
<!-- Generator: Adobe Illustrator 17.0.0, SVG Export Plug-In . SVG Version: 6.00 Build 0)  -->
<!DOCTYPE svg PUBLIC "-//W3C//DTD SVG 1.1//EN" "http://www.w3.org/Graphics/SVG/1.1/DTD/svg11.dtd">
<svg version="1.1" id="Layer_1" xmlns="http://www.w3.org/2000/svg" xmlns:xlink="http://www.w3.org/1999/xlink" x="0px" y="0px"
	 width="24px" height="24px" viewBox="0 0 24 24" enable-background="new 0 0 24 24" xml:space="preserve">
<g>
	<path fill="#09466C" d="M22,5c0.551,0,1,0.449,1,1v12c0,0.551-0.449,1-1,1H2c-0.551,0-1-0.449-1-1V6c0-0.551,0.449-1,1-1H22 M22,4
		H2C0.9,4,0,4.9,0,6v12c0,1.1,0.9,2,2,2h20c1.1,0,2-0.9,2-2V6C24,4.9,23.1,4,22,4L22,4z"/>
</g>
<rect y="7.997" fill="#09466C" width="24" height="1"/>
<rect y="11" fill="#09466C" width="24" height="1"/>
<rect x="2" y="15" fill="#09466C" width="1" height="3"/>
<rect x="3" y="15" fill="#09466C" width="4" height="1"/>
<rect x="3" y="17" fill="#09466C" width="4" height="1"/>
<rect x="7" y="15" fill="#09466C" width="1" height="3"/>
<rect x="9" y="15" fill="#09466C" width="1" height="3"/>
<rect x="10" y="15" fill="#09466C" width="2" height="1"/>
<rect x="11" y="16" fill="#09466C" width="1" height="2"/>
<rect x="10" y="17" fill="#09466C" width="1" height="1"/>
</svg>
