<?xml version="1.0" encoding="utf-8"?>
<!-- Generator: Adobe Illustrator 17.0.0, SVG Export Plug-In . SVG Version: 6.00 Build 0)  -->
<!DOCTYPE svg PUBLIC "-//W3C//DTD SVG 1.1//EN" "http://www.w3.org/Graphics/SVG/1.1/DTD/svg11.dtd">
<svg version="1.1" id="Layer_1" xmlns="http://www.w3.org/2000/svg" xmlns:xlink="http://www.w3.org/1999/xlink" x="0px" y="0px"
	 width="271.939px" height="96.201px" viewBox="0 0 271.939 96.201" enable-background="new 0 0 271.939 96.201"
	 xml:space="preserve">
<g>
	<path fill="#1EA0CA" d="M14.74,63.148c-1.514,0.232-2.879,0.406-4.1,0.523c-1.221,0.117-2.326,0.176-3.315,0.176
		c-0.989,0-2.093-0.059-3.315-0.176C2.79,63.555,1.451,63.381,0,63.148V21.934c1.277-0.289,2.543-0.492,3.795-0.611
		c1.25-0.113,2.455-0.174,3.618-0.174c1.104,0,2.298,0.06,3.577,0.174c1.277,0.119,2.529,0.322,3.75,0.611V63.148z"/>
	<path fill="#07456B" d="M24.365,0.697c1.221-0.174,2.543-0.334,3.968-0.479C29.758,0.072,31.08,0,32.302,0
		c1.162,0,2.427,0.072,3.794,0.219c1.365,0.145,2.631,0.305,3.795,0.479l12.386,32.447L65.099,0.697
		c1.162-0.174,2.34-0.334,3.531-0.479C69.821,0.072,70.999,0,72.163,0c1.221,0,2.471,0.072,3.752,0.219
		c1.277,0.145,2.529,0.305,3.748,0.479l2.967,62.275c-0.932,0.176-1.963,0.35-3.098,0.525c-1.133,0.174-2.631,0.26-4.49,0.26
		c-2.035,0-4.449-0.26-7.24-0.785l-1.221-36.107l-9.594,23.811c-1.049,0.174-2.094,0.32-3.141,0.436
		c-1.047,0.119-2.008,0.176-2.879,0.176c-0.873,0-1.774-0.045-2.703-0.131c-0.932-0.088-1.891-0.246-2.879-0.48l-8.548-23.463
		l-0.961,35.76c-2.441,0.525-4.767,0.785-6.976,0.785c-2.036,0-4.391-0.26-7.065-0.785L24.365,0.697z"/>
	<path fill="#07456B" d="M87.689,40.908c0-3.549,0.48-6.789,1.439-9.726c0.959-2.936,2.383-5.451,4.273-7.545
		c1.889-2.092,4.23-3.707,7.021-4.842c2.791-1.133,6.018-1.699,9.682-1.699c3.721,0,6.979,0.566,9.77,1.699
		c2.791,1.135,5.131,2.75,7.021,4.842c1.889,2.094,3.314,4.609,4.273,7.545c0.959,2.938,1.439,6.178,1.439,9.726
		c0,3.488-0.48,6.672-1.439,9.551s-2.385,5.35-4.273,7.412c-1.891,2.066-4.23,3.65-7.021,4.754c-2.791,1.104-6.049,1.658-9.77,1.658
		c-3.664,0-6.891-0.555-9.682-1.658c-2.791-1.104-5.133-2.688-7.021-4.754c-1.891-2.062-3.314-4.533-4.273-7.412
		S87.689,44.396,87.689,40.908z M117.692,40.908c0-3.723-0.625-6.572-1.873-8.549c-1.254-1.977-3.156-2.967-5.715-2.967
		c-2.561,0-4.447,0.99-5.67,2.967c-1.221,1.977-1.83,4.826-1.83,8.549c0,3.662,0.609,6.484,1.83,8.459
		c1.223,1.977,3.109,2.967,5.67,2.967c2.559,0,4.461-0.99,5.715-2.967C117.067,47.393,117.692,44.57,117.692,40.908z"/>
	<path fill="#07456B" d="M156.332,17.27c2.559,0,5.117,0.219,7.678,0.654c2.559,0.435,4.869,1.351,6.934,2.746
		c2.063,1.398,3.75,3.404,5.059,6.02c1.307,2.617,1.963,6.076,1.963,10.381v26.078c-1.514,0.291-2.879,0.48-4.1,0.566
		c-1.223,0.088-2.299,0.133-3.229,0.133c-0.988,0-2.094-0.045-3.312-0.133c-1.223-0.086-2.59-0.275-4.1-0.566v-24.51
		c0-3.082-0.582-5.291-1.746-6.629c-1.164-1.336-2.938-2.006-5.32-2.006c-0.641,0-1.322,0.059-2.049,0.174
		c-0.728,0.117-1.178,0.234-1.353,0.35v32.621c-1.512,0.291-2.877,0.48-4.098,0.566c-1.221,0.088-2.299,0.133-3.229,0.133
		c-0.988,0-2.094-0.045-3.314-0.133c-1.221-0.086-2.588-0.275-4.1-0.566V20.322c2.035-0.697,4.506-1.381,7.414-2.051
		C148.337,17.604,151.972,17.27,156.332,17.27z"/>
	<path fill="#07456B" d="M255.851,18.141c0.467-0.115,1.353-0.23,2.662-0.348c1.309-0.115,2.715-0.174,4.23-0.174
		c1.918,0,3.633,0.059,5.147,0.174c1.51,0.117,2.586,0.232,3.227,0.348l-16.836,29.221v15.787c-1.51,0.232-2.877,0.406-4.1,0.523
		c-1.221,0.117-2.324,0.176-3.314,0.176c-0.988,0-2.092-0.059-3.312-0.176c-1.221-0.117-2.561-0.291-4.014-0.523V47.361
		l-16.746-29.221c0.639-0.115,1.76-0.23,3.359-0.348c1.598-0.115,3.357-0.174,5.277-0.174c1.512,0,2.992,0.059,4.447,0.174
		c1.453,0.117,2.412,0.232,2.879,0.348l8.547,17.184L255.851,18.141z"/>
	<g>
		<path fill="#07456B" d="M7.369,0.324c1.059,0,2.142,0.053,3.251,0.158c1.108,0.105,2.271,0.238,3.486,0.396
			c0.21,1.215,0.368,2.377,0.476,3.486c0.104,1.109,0.158,2.193,0.158,3.248c0,1.061-0.055,2.141-0.158,3.252
			c-0.107,1.107-0.266,2.271-0.476,3.486c-1.216,0.211-2.378,0.369-3.486,0.475c-1.109,0.106-2.192,0.16-3.251,0.16
			c-1.057,0-2.139-0.055-3.248-0.16c-1.109-0.105-2.273-0.264-3.488-0.475c-0.211-1.215-0.371-2.379-0.476-3.486
			C0.053,9.754,0,8.674,0,7.613c0-1.055,0.053-2.139,0.157-3.248c0.105-1.109,0.265-2.272,0.476-3.486
			c1.215-0.158,2.379-0.291,3.488-0.396C5.231,0.377,6.313,0.324,7.369,0.324z"/>
	</g>
	<path fill="#07456B" d="M223.535,29.611c-0.898-2.586-2.193-4.797-3.881-6.629c-1.686-1.832-3.736-3.27-6.146-4.318
		c-0.65-0.281-1.328-0.518-2.025-0.723c0.002-0.123,0.01-0.249,0.01-0.371c0-1.057-0.053-2.141-0.158-3.25
		c-0.107-1.109-0.266-2.271-0.475-3.486c-1.217-0.158-2.377-0.291-3.488-0.396c-1.107-0.105-2.193-0.158-3.248-0.158
		c-1.061,0-2.141,0.053-3.25,0.158c-1.111,0.106-2.271,0.238-3.486,0.396c-0.213,1.215-0.371,2.377-0.477,3.486
		c-0.107,1.109-0.158,2.193-0.158,3.25c0,0.293,0.014,0.592,0.021,0.889c-0.435,0.158-0.865,0.326-1.279,0.512
		c-2.791,1.25-5.117,2.951-6.977,5.104c-1.861,2.15-3.258,4.68-4.188,7.588c-0.932,2.908-1.396,6.016-1.396,9.33
		c0,3.375,0.451,6.486,1.354,9.334c0.9,2.852,2.297,5.307,4.188,7.371c1.889,2.064,4.33,3.68,7.326,4.84
		c0.309,0.12,0.652,0.208,0.977,0.316c-0.012,0.354-0.025,0.708-0.025,1.055c0,1.057,0.051,2.139,0.158,3.248
		c0.105,1.109,0.264,2.273,0.477,3.486c1.215,0.213,2.375,0.367,3.486,0.475c1.109,0.107,2.189,0.158,3.25,0.158
		c1.055,0,2.141-0.051,3.248-0.158c1.111-0.107,2.271-0.262,3.488-0.475c0.209-1.213,0.367-2.377,0.475-3.486
		c0.102-1.076,0.152-2.126,0.156-3.152c3.707-0.407,7.359-1.267,10.957-2.6c-0.059-2.268-0.393-4.449-1.004-6.541
		c-0.609-2.092-1.322-3.896-2.137-5.408c-2.037,0.814-4.1,1.426-6.193,1.832c-2.094,0.406-3.984,0.607-5.668,0.607
		c-2.617,0-4.727-0.49-6.324-1.48c-1.6-0.988-2.719-2.674-3.357-5.059h26.514c0.117-0.814,0.248-1.846,0.393-3.096
		c0.144-1.252,0.219-2.66,0.219-4.23C224.888,35.006,224.437,32.199,223.535,29.611z M197.587,35.324
		c0.232-2.441,1.018-4.244,2.355-5.406c1.336-1.164,2.936-1.746,4.799-1.746c2.148,0,3.791,0.684,4.926,2.051
		c1.135,1.367,1.758,3.068,1.877,5.102H197.587z"/>
	<g>
		<path fill="#1EA0CA" d="M133.756,93.321c0.652,0.206,1.295,0.381,1.93,0.523c0.635,0.143,1.332,0.214,2.09,0.214
			c1.498,0,2.648-0.297,3.451-0.892c0.803-0.595,1.203-1.393,1.203-2.392c0-0.651-0.233-1.198-0.7-1.643
			c-0.468-0.444-1.177-0.896-2.13-1.356c-0.581-0.286-1.109-0.575-1.586-0.869c-0.477-0.293-0.882-0.607-1.217-0.939
			c-0.335-0.334-0.596-0.707-0.78-1.119s-0.277-0.881-0.277-1.404c0-0.746,0.159-1.42,0.476-2.023
			c0.317-0.604,0.771-1.119,1.362-1.547c0.591-0.429,1.3-0.762,2.129-1c0.829-0.238,1.755-0.357,2.776-0.357
			c0.953,0,1.772,0.064,2.46,0.191c0.688,0.127,1.34,0.301,1.957,0.523c-0.07,0.333-0.172,0.674-0.305,1.023
			c-0.133,0.35-0.312,0.682-0.543,1c-0.457-0.191-0.973-0.357-1.546-0.5c-0.572-0.143-1.23-0.215-1.97-0.215
			c-0.564,0-1.085,0.048-1.561,0.143c-0.476,0.096-0.891,0.238-1.243,0.429c-0.354,0.19-0.631,0.44-0.833,0.75
			c-0.202,0.31-0.304,0.679-0.304,1.106c0,0.635,0.211,1.162,0.635,1.583c0.423,0.421,1.074,0.845,1.957,1.273
			c0.652,0.317,1.238,0.627,1.758,0.929c0.52,0.301,0.961,0.627,1.322,0.976c0.361,0.349,0.64,0.737,0.834,1.167
			c0.193,0.428,0.291,0.928,0.291,1.499c0,0.872-0.182,1.666-0.543,2.38c-0.361,0.715-0.877,1.325-1.547,1.833
			c-0.67,0.508-1.48,0.901-2.434,1.179c-0.951,0.277-2.027,0.416-3.227,0.416c-0.969,0-1.842-0.068-2.617-0.202
			c-0.776-0.135-1.49-0.314-2.143-0.536C133.023,94.766,133.314,94.051,133.756,93.321z"/>
		<path fill="#1EA0CA" d="M151.871,78.802c0.23-0.032,0.459-0.056,0.688-0.071c0.23-0.016,0.459-0.023,0.688-0.023
			c0.248,0,0.48,0.008,0.701,0.023c0.221,0.016,0.438,0.039,0.648,0.071l-3.332,17.114c-0.248,0.031-0.481,0.055-0.701,0.07
			c-0.221,0.016-0.453,0.024-0.701,0.024c-0.246,0-0.48-0.009-0.701-0.024c-0.221-0.016-0.428-0.039-0.621-0.07L151.871,78.802z"/>
		<path fill="#1EA0CA" d="M159.859,78.802c0.193-0.032,0.41-0.052,0.648-0.06c0.236-0.008,0.453-0.012,0.646-0.012
			c0.441,0,0.838,0.023,1.191,0.071l5.342,12.901l2.486-12.901c0.176-0.016,0.348-0.032,0.516-0.048
			c0.166-0.016,0.338-0.023,0.516-0.023h0.635l0.846,0.071l-3.332,17.114c-0.193,0.031-0.4,0.051-0.621,0.058
			c-0.221,0.008-0.437,0.012-0.648,0.012c-0.193,0-0.393-0.004-0.596-0.012c-0.203-0.008-0.4-0.027-0.594-0.058l-5.369-12.83
			l-2.459,12.83c-0.353,0.047-0.697,0.07-1.033,0.07h-0.66l-0.846-0.07L159.859,78.802z"/>
		<path fill="#1EA0CA" d="M186.623,87.085c0.211-0.032,0.436-0.056,0.674-0.071c0.238-0.016,0.463-0.023,0.676-0.023
			c0.246,0,0.478,0.008,0.699,0.023c0.221,0.016,0.437,0.039,0.648,0.071c-0.281,1.396-0.561,2.781-0.832,4.153
			c-0.273,1.373-0.543,2.758-0.807,4.154c-0.688,0.254-1.518,0.451-2.486,0.594c-0.971,0.144-1.904,0.215-2.805,0.215
			c-1.146,0-2.168-0.158-3.066-0.477c-0.9-0.316-1.658-0.766-2.275-1.344c-0.617-0.58-1.084-1.277-1.402-2.096
			c-0.316-0.816-0.475-1.717-0.475-2.701c0-1.459,0.215-2.855,0.646-4.189c0.434-1.332,1.086-2.511,1.959-3.534
			c0.871-1.023,1.951-1.837,3.238-2.44c1.287-0.603,2.795-0.904,4.523-0.904c0.881,0,1.662,0.064,2.34,0.191
			c0.68,0.127,1.248,0.277,1.707,0.451c-0.09,0.365-0.191,0.699-0.305,1c-0.115,0.302-0.287,0.635-0.516,1
			c-0.494-0.175-0.988-0.301-1.482-0.381c-0.492-0.079-1.066-0.119-1.719-0.119c-1.305,0-2.428,0.246-3.371,0.738
			c-0.943,0.492-1.719,1.146-2.328,1.963c-0.607,0.818-1.057,1.75-1.348,2.797c-0.291,1.048-0.438,2.127-0.438,3.237
			c0,1.587,0.424,2.761,1.27,3.523c0.848,0.762,2.02,1.142,3.518,1.142c0.441,0,0.877-0.027,1.309-0.083
			c0.434-0.056,0.807-0.139,1.125-0.25L186.623,87.085z"/>
		<path fill="#1EA0CA" d="M199.529,78.802c0.229-0.032,0.506-0.052,0.832-0.06c0.326-0.008,0.613-0.012,0.861-0.012
			c0.264,0,0.531,0.004,0.807,0.012c0.271,0.008,0.516,0.027,0.727,0.06l2.592,17.114c-0.512,0.047-1.023,0.07-1.533,0.07
			c-0.424,0-0.855-0.023-1.297-0.07l-0.502-4.024h-6.4l-1.932,4.024c-0.422,0.047-0.898,0.07-1.428,0.07
			c-0.246,0-0.488-0.004-0.727-0.012c-0.238-0.008-0.455-0.027-0.648-0.058L199.529,78.802z M201.75,89.799l-1.084-8.26l-4.02,8.26
			H201.75z"/>
		<path fill="#1EA0CA" d="M211.986,78.777c0.545-0.062,1.172-0.122,1.877-0.178c0.705-0.056,1.365-0.084,1.984-0.084
			c0.828,0,1.629,0.072,2.406,0.215c0.775,0.143,1.463,0.389,2.062,0.738c0.6,0.349,1.08,0.816,1.441,1.404
			c0.361,0.586,0.543,1.324,0.543,2.213c0,1.08-0.203,2.031-0.609,2.856c-0.406,0.825-0.961,1.52-1.666,2.083
			c-0.705,0.562-1.547,0.992-2.525,1.285c-0.979,0.293-2.033,0.439-3.16,0.439c-0.705,0-1.297-0.023-1.773-0.07l-1.215,6.236
			c-0.459,0.047-0.918,0.07-1.377,0.07c-0.457,0-0.898-0.023-1.322-0.07L211.986,78.777z M212.99,87.561
			c0.246,0.032,0.484,0.057,0.715,0.072c0.229,0.016,0.502,0.023,0.82,0.023c0.703,0,1.357-0.084,1.957-0.25
			c0.598-0.166,1.119-0.42,1.559-0.762c0.441-0.342,0.785-0.785,1.033-1.333c0.246-0.548,0.369-1.202,0.369-1.964
			c0-1.062-0.334-1.789-1.004-2.178c-0.672-0.389-1.578-0.583-2.725-0.583c-0.23,0-0.459,0.009-0.688,0.024
			c-0.23,0.016-0.469,0.039-0.715,0.07L212.99,87.561z"/>
		<path fill="#1EA0CA" d="M230.789,96.201c-1.057,0-1.979-0.15-2.764-0.452c-0.785-0.302-1.437-0.726-1.957-1.274
			c-0.52-0.548-0.908-1.21-1.164-1.987c-0.256-0.777-0.383-1.635-0.383-2.57c0-1.461,0.211-2.877,0.635-4.25
			c0.424-1.371,1.045-2.586,1.865-3.641c0.818-1.056,1.828-1.904,3.027-2.547c1.199-0.643,2.564-0.965,4.1-0.965
			c1.057,0,1.983,0.159,2.777,0.477c0.793,0.317,1.445,0.754,1.957,1.309c0.51,0.557,0.895,1.223,1.15,2
			c0.254,0.777,0.383,1.627,0.383,2.547c0,1.492-0.217,2.92-0.648,4.284c-0.432,1.364-1.057,2.571-1.877,3.618
			c-0.82,1.047-1.824,1.885-3.016,2.511C233.685,95.889,232.324,96.201,230.789,96.201z M231.08,94.106
			c1.041,0,1.961-0.274,2.764-0.821c0.803-0.547,1.48-1.262,2.037-2.143c0.555-0.88,0.978-1.871,1.269-2.975
			s0.436-2.201,0.436-3.297c0-1.285-0.295-2.309-0.885-3.07c-0.592-0.762-1.549-1.143-2.871-1.143c-1.057,0-1.992,0.27-2.803,0.809
			c-0.811,0.541-1.49,1.246-2.037,2.119c-0.547,0.873-0.961,1.861-1.242,2.963c-0.283,1.104-0.424,2.219-0.424,3.345
			c0,1.333,0.305,2.368,0.912,3.106C228.845,93.738,229.793,94.106,231.08,94.106z"/>
		<path fill="#1EA0CA" d="M246.287,78.777c0.67-0.095,1.312-0.162,1.93-0.201c0.617-0.04,1.227-0.061,1.826-0.061
			c0.793,0,1.568,0.072,2.326,0.215c0.758,0.143,1.432,0.381,2.023,0.714c0.59,0.333,1.062,0.773,1.414,1.321
			c0.354,0.547,0.529,1.234,0.529,2.059c0,0.842-0.15,1.579-0.449,2.214c-0.301,0.635-0.674,1.187-1.123,1.653
			c-0.451,0.469-0.943,0.861-1.482,1.179c-0.537,0.317-1.035,0.571-1.494,0.762l3.465,7.284c-0.529,0.047-1.041,0.07-1.533,0.07
			c-0.512,0-0.988-0.023-1.43-0.07l-3.676-7.975l0.266-0.071c0.105-0.016,0.295-0.071,0.568-0.167
			c0.273-0.095,0.582-0.229,0.926-0.404c0.344-0.174,0.701-0.385,1.07-0.631c0.371-0.246,0.709-0.539,1.02-0.881
			c0.307-0.34,0.559-0.721,0.752-1.142c0.195-0.42,0.291-0.893,0.291-1.416c0-0.951-0.299-1.634-0.899-2.047
			c-0.6-0.412-1.428-0.619-2.486-0.619c-0.281,0-0.533,0.009-0.754,0.024c-0.221,0.017-0.471,0.04-0.754,0.071l-2.988,15.258
			c-0.211,0.016-0.436,0.031-0.674,0.047c-0.238,0.016-0.473,0.023-0.701,0.023c-0.211,0-0.436-0.004-0.674-0.012
			c-0.238-0.008-0.455-0.027-0.648-0.058L246.287,78.777z"/>
		<path fill="#1EA0CA" d="M261.863,78.802h10.076c0,0.714-0.141,1.429-0.422,2.142h-7.353l-0.951,4.88h5.871
			c0,0.729-0.143,1.444-0.424,2.142h-5.871c-0.193,0.984-0.383,1.957-0.568,2.916c-0.186,0.961-0.375,1.933-0.568,2.916h7.565
			c-0.055,0.413-0.098,0.77-0.133,1.071c-0.035,0.302-0.133,0.651-0.291,1.048h-10.262L261.863,78.802z"/>
	</g>
</g>
</svg>
